{
  "Content": {
    "Reference": "../../android_multi_title.json"
  }, 
  "PublisherId": "American Survival Guide", 
  "RequiredVariables": {
    "Reference": "../../android_required_variables.json"
  }, 
  "Resources": [
    {
      "rid": "Icon36x36.png", 
      "type": "generated", 
      "url": "./Resources/Icons/36x36_Vet.png"
    }, 
    {
      "rid": "Icon48x48.png", 
      "type": "generated", 
      "url": "./Resources/Icons/48x48_Vet.png"
    }, 
    {
      "rid": "Icon512x512.png", 
      "type": "generated", 
      "url": "./Resources/Icons/512x512_Vet.jpg"
    }, 
    {
      "rid": "Icon72x72.png", 
      "type": "generated", 
      "url": "./Resources/Icons/72x72_Vet.png"
    }, 
    {
      "rid": "Icon96x96.png", 
      "type": "generated", 
      "url": "./Resources/Icons/96x96_Vet.png"
    }, 
    {
      "rid": "SplashIcon.png", 
      "url": "./Resources/QH3SPMBVO88KK6O"
    }, 
    {
      "rid": "banner_567.png", 
      "url": "./Resources/580L4H9D0F4SV82"
    }
  ], 
  "Variables": [
    {
      "name": "Debug", 
      "required": true, 
      "value": "false"
    }, 
    {
      "name": "authentication", 
      "required": true, 
      "value": "mediawire"
    }, 
    {
      "name": "pdf_format", 
      "required": true, 
      "value": "-pub.pdf"
    }, 
    {
      "name": "splash_end_color", 
      "required": true, 
      "value": "#FBC37B"
    }, 
    {
      "name": "splash_start_color", 
      "required": true, 
      "value": "#FEF5E9"
    }, 
    {
      "name": "share_text", 
      "required": true, 
      "value": ""
    }, 
    {
      "name": "billing_key", 
      "required": true, 
      "value": ""
    }, 
    {
      "name": "thumbs_format", 
      "required": true, 
      "value": "-thumbnail-image-{0}.jpg"
    }, 
    {
      "name": "namespace_camel", 
      "required": true, 
      "value": ""
    }, 
    {
      "name": "namespace_lower", 
      "required": true, 
      "value": ""
    }, 
    {
      "name": "blog_url", 
      "required": true, 
      "value": ""
    }, 
    {
      "name": "app_name", 
      "required": true, 
      "value": ""
    }, 
    {
      "name": "titles", 
      "required": true, 
      "value": ""
    }, 
    {
      "name": "services_url", 
      "required": true, 
      "value": "http://50.56.166.214"
    }, 
    {
      "name": "android_config", 
      "value": "/Users/kostamihajlov/MyProjects/PrintStandClient/src/Configs/AmericanSurvivalGuide/Android/bc.json"
    }
  ]
}